interactions:
- request:
    body: ''
    headers:
      Accept:
      - '*/*'
      Accept-Encoding:
      - gzip, deflate, zstd
      Connection:
      - keep-alive
      Host:
      - cloud.langfuse.com
      X-Fern-Language:
      - Python
      authorization:
      - FILTERED
      user-agent:
      - FILTERED
    method: GET
    uri: https://cloud.langfuse.com/api/public/traces?limit=5&page=1
  response:
    body:
      string: '{"data": [{"bookmarked": false, "createdAt": "2026-05-07T21:10:27.000Z",
        "environment": "default", "externalId": null, "htmlPath": "/redacted", "id":
        "redacted-trace-000", "input": "[REDACTED USER CONTENT]", "latency": 0.001,
        "metadata": {}, "name": "redacted-trace-name", "observations": [], "output":
        "[REDACTED USER CONTENT]", "projectId": "redacted-project-id", "public": false,
        "release": null, "scores": [], "sessionId": null, "tags": [], "timestamp":
        "2026-05-07T21:10:25.798Z", "totalCost": 0, "updatedAt": "2026-05-07T21:10:27.013Z",
        "userId": null, "version": null}, {"bookmarked": false, "createdAt": "2026-05-07T21:09:52.000Z",
        "environment": "default", "externalId": null, "htmlPath": "/redacted", "id":
        "redacted-trace-001", "input": "[REDACTED USER CONTENT]", "latency": 0, "metadata":
        {}, "name": "redacted-trace-name", "observations": [], "output": "[REDACTED
        USER CONTENT]", "projectId": "redacted-project-id", "public": false, "release":
        null, "scores": [], "sessionId": null, "tags": [], "timestamp": "2026-05-07T21:09:49.242Z",
        "totalCost": 0, "updatedAt": "2026-05-07T21:09:51.897Z", "userId": null, "version":
        null}, {"bookmarked": false, "createdAt": "2026-05-07T20:56:12.000Z", "environment":
        "default", "externalId": null, "htmlPath": "/redacted", "id": "redacted-trace-002",
        "input": "[REDACTED USER CONTENT]", "latency": 0.001, "metadata": {}, "name":
        "redacted-trace-name", "observations": [], "output": "[REDACTED USER CONTENT]",
        "projectId": "redacted-project-id", "public": false, "release": null, "scores":
        [], "sessionId": null, "tags": [], "timestamp": "2026-05-07T20:56:10.445Z",
        "totalCost": 0, "updatedAt": "2026-05-07T20:56:11.604Z", "userId": null, "version":
        null}, {"bookmarked": false, "createdAt": "2026-05-07T20:15:27.000Z", "environment":
        "default", "externalId": null, "htmlPath": "/redacted", "id": "redacted-trace-003",
        "input": "[REDACTED USER CONTENT]", "latency": 15.98, "metadata": {}, "name":
        "redacted-trace-name", "observations": [], "output": "[REDACTED USER CONTENT]",
        "projectId": "redacted-project-id", "public": false, "release": null, "scores":
        [], "sessionId": null, "tags": [], "timestamp": "2026-05-07T20:15:07.505Z",
        "totalCost": 0, "updatedAt": "2026-05-07T20:15:26.355Z", "userId": null, "version":
        null}, {"bookmarked": false, "createdAt": "2026-05-07T19:00:34.000Z", "environment":
        "langfuse-llm-as-a-judge", "externalId": null, "htmlPath": "/redacted", "id":
        "redacted-trace-004", "input": "[REDACTED USER CONTENT]", "latency": 2.453,
        "metadata": {}, "name": "redacted-trace-name", "observations": [], "output":
        "[REDACTED USER CONTENT]", "projectId": "redacted-project-id", "public": false,
        "release": null, "scores": [], "sessionId": null, "tags": [], "timestamp":
        "2026-05-07T19:00:31.163Z", "totalCost": 0.005024, "updatedAt": "2026-05-07T19:00:38.757Z",
        "userId": null, "version": null}], "meta": {"limit": 5, "page": 1, "totalItems":
        8, "totalPages": 2}}'
    headers:
      Connection:
      - keep-alive
      Content-Type:
      - application/json; charset=utf-8
      Date:
      - Fri, 08 May 2026 05:47:20 GMT
      Document-Policy:
      - js-profiling
      ETag:
      - '"86n1poe0j4ryd"'
      Permissions-Policy:
      - autoplay=*, fullscreen=*, microphone=*
      Referrer-Policy:
      - strict-origin-when-cross-origin
      Transfer-Encoding:
      - chunked
      Vary:
      - Origin, Accept-Encoding
      X-Content-Type-Options:
      - nosniff
      X-Robots-Tag:
      - noindex
      x-frame-options:
      - SAMEORIGIN
    status:
      code: 200
      message: OK
- request:
    body: ''
    headers:
      Accept:
      - '*/*'
      Accept-Encoding:
      - gzip, deflate, zstd
      Connection:
      - keep-alive
      Host:
      - cloud.langfuse.com
      X-Fern-Language:
      - Python
      authorization:
      - FILTERED
      user-agent:
      - FILTERED
    method: GET
    uri: https://cloud.langfuse.com/api/public/traces?limit=5&page=2
  response:
    body:
      string: '{"data": [{"bookmarked": false, "createdAt": "2026-05-07T19:00:31.000Z",
        "environment": "default", "externalId": null, "htmlPath": "/redacted", "id":
        "redacted-trace-005", "input": "[REDACTED USER CONTENT]", "latency": 77.926,
        "metadata": {}, "name": "redacted-trace-name", "observations": [], "output":
        "[REDACTED USER CONTENT]", "projectId": "redacted-project-id", "public": false,
        "release": null, "scores": [], "sessionId": null, "tags": [], "timestamp":
        "2026-05-07T18:59:10.755Z", "totalCost": 0, "updatedAt": "2026-05-07T19:00:30.970Z",
        "userId": null, "version": null}, {"bookmarked": false, "createdAt": "2026-05-07T18:53:05.000Z",
        "environment": "default", "externalId": null, "htmlPath": "/redacted", "id":
        "redacted-trace-006", "input": "[REDACTED USER CONTENT]", "latency": 40.232,
        "metadata": {}, "name": "redacted-trace-name", "observations": [], "output":
        "[REDACTED USER CONTENT]", "projectId": "redacted-project-id", "public": false,
        "release": null, "scores": [], "sessionId": null, "tags": [], "timestamp":
        "2026-05-07T18:52:23.066Z", "totalCost": 0, "updatedAt": "2026-05-07T18:53:05.558Z",
        "userId": null, "version": null}, {"bookmarked": false, "createdAt": "2026-05-07T18:52:10.000Z",
        "environment": "default", "externalId": null, "htmlPath": "/redacted", "id":
        "redacted-trace-007", "input": "[REDACTED USER CONTENT]", "latency": 49.904,
        "metadata": {}, "name": "redacted-trace-name", "observations": [], "output":
        "[REDACTED USER CONTENT]", "projectId": "redacted-project-id", "public": false,
        "release": null, "scores": [], "sessionId": null, "tags": [], "timestamp":
        "2026-05-07T18:51:19.676Z", "totalCost": 0, "updatedAt": "2026-05-07T18:52:10.235Z",
        "userId": null, "version": null}], "meta": {"limit": 5, "page": 2, "totalItems":
        8, "totalPages": 2}}'
    headers:
      Connection:
      - keep-alive
      Content-Type:
      - application/json; charset=utf-8
      Date:
      - Fri, 08 May 2026 05:47:20 GMT
      Document-Policy:
      - js-profiling
      ETag:
      - '"o0ukquqmbcdie"'
      Permissions-Policy:
      - autoplay=*, fullscreen=*, microphone=*
      Referrer-Policy:
      - strict-origin-when-cross-origin
      Transfer-Encoding:
      - chunked
      Vary:
      - Origin, Accept-Encoding
      X-Content-Type-Options:
      - nosniff
      X-Robots-Tag:
      - noindex
      x-frame-options:
      - SAMEORIGIN
    status:
      code: 200
      message: OK
version: 1
